{
  "title": "Largest Companies by Market Cap",
  "bestMatches": [
    {
      "1. symbol": "NVDA",
      "2. name": "NVIDIA",
      "country": "US",
      "ex": "BCS",
      "logo": "NVDA.webp"
    },
    {
      "2. name": "Microsoft",
      "1. symbol": "MSFT",
      "logo": "MSFT.webp",
      "country": "US",
      "ex": "NASDAQ"
    },
    {
      "2. name": "Apple Inc.",
      "1. symbol": "AAPL",
      "logo": "AAPL.webp",
      "country": "US",
      "ex": "NASDAQ"
    },
    {
      "1. symbol": "GOOG",
      "2. name": "Alphabet Inc.",
      "country": "US",
      "ex": "NASDAQ",
      "logo": "GOOG.webp"
    },
    {
      "1. symbol": "AMZN",
      "2. name": "Amazon.com, Inc.",
      "country": "US",
      "ex": "NASDAQ",
      "logo": "AMZN.webp"
    },
    {
      "1. symbol": "META",
      "2. name": "Meta Platforms",
      "country": "US",
      "ex": "NASDAQ",
      "logo": "META.webp"
    },
    {
      "1. symbol": "TSM",
      "2. name": "TSMC",
      "country": "TW",
      "ex": "TWSE",
      "logo": "TSM.webp"
    },
    {
      "1. symbol": "BRK-B",
      "2. name": "Berkshire Hathaway",
      "country": "US",
      "ex": "NYSE",
      "logo": "BRK-B.webp"
    },
    {
      "1. symbol": "LLY",
      "2. name": "Eli Lilly",
      "country": "US",
      "ex": "NYSE",
      "logo": "LLY.webp"
    },
    {
      "1. symbol": "AVGO",
      "2. name": "Broadcom",
      "country": "US",
      "ex": "NASDAQ",
      "logo": "AVGO.webp"
    },
    {
      "1. symbol": "NVO",
      "2. name": "Novo Nordisk",
      "country": "DK",
      "ex": "OMXCOP",
      "logo": "NVO.webp"
    },
    {
      "1. symbol": "TSLA",
      "2. name": "Tesla",
      "country": "US",
      "ex": "NASDAQ",
      "logo": "TSLA.webp"
    },
    {
      "1. symbol": "JPM",
      "2. name": "JPMorgan Chase",
      "country": "US",
      "ex": "NYSE",
      "logo": "JPM.webp"
    },
    {
      "1. symbol": "V",
      "2. name": "Visa",
      "country": "US",
      "ex": "NYSE",
      "logo": "V.webp"
    },
    {
      "1. symbol": "WMT",
      "2. name": "Walmart",
      "country": "US",
      "ex": "NYSE",
      "logo": "WMT.webp"
    },
    {
      "1. symbol": "XOM",
      "2. name": "Exxon Mobil",
      "country": "US",
      "ex": "NYSE",
      "logo": "XOM.webp"
    }
  ]
}